%YAML 1.1
%TAG !u! tag:unity3d.com,2011:
--- !u!114 &11400000
MonoBehaviour:
  m_ObjectHideFlags: 0
  m_CorrespondingSourceObject: {fileID: 0}
  m_PrefabInstance: {fileID: 0}
  m_PrefabAsset: {fileID: 0}
  m_GameObject: {fileID: 0}
  m_Enabled: 1
  m_EditorHideFlags: 0
  m_Script: {fileID: 11500000, guid: da85ca21a5ea2e946934445b7f5bd7a6, type: 3}
  m_Name: ClayMine
  m_EditorClassIdentifier: 
  <BuildingName>k__BackingField: Clay mine
  <IsWaterbuilding>k__BackingField: 0
  <Prefab>k__BackingField: {fileID: 8714026441738177629, guid: d0df40cdd7ba22742817a193c6ab400f,
    type: 3}
  <BuildingConfig>k__BackingField:
    <Producer>k__BackingField:
    - product: 6
      baseRate: 0.05
      moistureModifierCurve:
        serializedVersion: 2
        m_Curve:
        - serializedVersion: 3
          time: 0
          value: 1
          inSlope: 0
          outSlope: 0
          tangentMode: 0
          weightedMode: 0
          inWeight: 0
          outWeight: 0.061339673
        - serializedVersion: 3
          time: 0.4
          value: 1
          inSlope: -0
          outSlope: -2.5833004
          tangentMode: 5
          weightedMode: 0
          inWeight: 0.33333334
          outWeight: 0.06710857
        - serializedVersion: 3
          time: 0.9985962
          value: 0.49764252
          inSlope: -2.0443327
          outSlope: -2.0443327
          tangentMode: 0
          weightedMode: 0
          inWeight: 0.048521865
          outWeight: 0
        m_PreInfinity: 2
        m_PostInfinity: 2
        m_RotationOrder: 4
      heightModifierCurve:
        serializedVersion: 2
        m_Curve:
        - serializedVersion: 3
          time: 0
          value: 1
          inSlope: 0
          outSlope: 0
          tangentMode: 0
          weightedMode: 0
          inWeight: 0
          outWeight: 0.061339673
        - serializedVersion: 3
          time: 0.2
          value: 1
          inSlope: -0
          outSlope: -1.3082875
          tangentMode: 5
          weightedMode: 0
          inWeight: 0.33333334
          outWeight: 0.061708756
        - serializedVersion: 3
          time: 0.9971924
          value: 0.4952774
          inSlope: 0.06280017
          outSlope: 0.06280017
          tangentMode: 0
          weightedMode: 0
          inWeight: 0.13288248
          outWeight: 0
        m_PreInfinity: 2
        m_PostInfinity: 2
        m_RotationOrder: 4
    <Consumer>k__BackingField: []
    <DefaultStorage>k__BackingField:
    - product: 1
      defaultAmount: -3
  <CurrencyCost>k__BackingField: 20
